[
    {
        "recall": 0.5526315789473685, 
        "detected": [
            93, 
            159, 
            625, 
            781, 
            1131, 
            1193, 
            1215, 
            1629, 
            1754, 
            1832, 
            2549, 
            3406, 
            3452, 
            4328, 
            4715, 
            4741, 
            4930, 
            5008, 
            5677, 
            5723, 
            5910, 
            6106, 
            7264, 
            7515, 
            7532, 
            7639, 
            7880, 
            8221, 
            8447, 
            10615, 
            11157, 
            11266
        ], 
        "actual": [
            72, 
            159, 
            625, 
            781, 
            1099, 
            1131, 
            1150, 
            1193, 
            1215, 
            1249, 
            1268, 
            1324, 
            1365, 
            1408, 
            1429, 
            1464, 
            1515, 
            1629, 
            1754, 
            1832, 
            1889, 
            2235, 
            4328, 
            4741, 
            4930, 
            5008, 
            5910, 
            7264, 
            7449, 
            7532, 
            7611, 
            7639, 
            7695, 
            7835, 
            7880, 
            8221, 
            8447, 
            10615
        ], 
        "precision": 0.65625, 
        "candidate": "anni005"
    }, 
    {
        "recall": 0.6842105263157895, 
        "detected": [
            147, 
            944, 
            988, 
            1223, 
            1968, 
            2269, 
            2441, 
            2553, 
            2605, 
            2713, 
            2764, 
            2820, 
            4056, 
            4109, 
            4228, 
            4328, 
            4716, 
            5359, 
            5865, 
            6135, 
            6520, 
            7063, 
            7141, 
            7159, 
            7178, 
            7198, 
            7239, 
            7256, 
            8218, 
            8292, 
            8323, 
            9161, 
            9366, 
            10513, 
            11286, 
            11528, 
            11572, 
            11962, 
            12277
        ], 
        "actual": [
            147, 
            1922, 
            2269, 
            2441, 
            2475, 
            2493, 
            2553, 
            2605, 
            2659, 
            2713, 
            2764, 
            2820, 
            2887, 
            4056, 
            4109, 
            4228, 
            4328, 
            4716, 
            5997, 
            6135, 
            6520, 
            6685, 
            6747, 
            7063, 
            7123, 
            7141, 
            7159, 
            7178, 
            7198, 
            7219, 
            7239, 
            7256, 
            8218, 
            8291, 
            8323, 
            9161, 
            9242, 
            9366
        ], 
        "precision": 0.6666666666666666, 
        "candidate": "anni009"
    }, 
    {
        "recall": 0.8871794871794871, 
        "detected": [
            68, 
            165, 
            317, 
            391, 
            561, 
            677, 
            708, 
            787, 
            951, 
            1075, 
            1135, 
            1252, 
            1317, 
            1448, 
            1698, 
            1798, 
            1890, 
            2357, 
            2453, 
            2683, 
            3547, 
            3703, 
            3935, 
            4109, 
            4334, 
            4558, 
            4943, 
            5137, 
            5311, 
            5561, 
            5631, 
            5899, 
            6125, 
            6275, 
            6794, 
            6909, 
            6979, 
            7124, 
            7212, 
            7342, 
            7551, 
            7752, 
            7881, 
            8003, 
            8084, 
            8179, 
            8272, 
            8346, 
            8418, 
            8484, 
            8751, 
            9148, 
            9398, 
            9615, 
            9764, 
            9789, 
            9884, 
            10160, 
            10833, 
            11055, 
            11299, 
            11588, 
            11764, 
            11895, 
            12127, 
            12248, 
            12362, 
            12487, 
            12685, 
            13065, 
            13228, 
            13532, 
            13843, 
            14066, 
            14289, 
            14857, 
            15309, 
            15526, 
            16035, 
            16368, 
            16774, 
            16885, 
            17060, 
            17088, 
            17179, 
            17280, 
            17382, 
            17485, 
            17917, 
            18072, 
            18225, 
            18649, 
            18757, 
            18854, 
            18994, 
            19302, 
            19467, 
            19708, 
            20038, 
            20861, 
            21123, 
            21492, 
            21705, 
            21797, 
            21978, 
            22508, 
            22626, 
            22724, 
            22932, 
            23265, 
            23443, 
            23712, 
            23885, 
            24050, 
            24186, 
            24377, 
            25103, 
            25180, 
            25357, 
            25396, 
            25505, 
            25646, 
            25796, 
            26072, 
            26214, 
            26374, 
            26792, 
            26895, 
            27210, 
            27283, 
            27423, 
            27524, 
            27714, 
            27846, 
            27989, 
            28422, 
            28589, 
            28808, 
            29113, 
            29390, 
            29649, 
            29919, 
            30129, 
            30400, 
            30550, 
            30675, 
            30814, 
            30924, 
            31080, 
            32092, 
            32179, 
            32230, 
            32257, 
            32408, 
            33010, 
            33059, 
            33343, 
            33562, 
            33735, 
            33834, 
            33906, 
            34124, 
            34396, 
            34683, 
            35038, 
            35261, 
            35487, 
            35765, 
            35995, 
            36064, 
            36174, 
            36376, 
            36483, 
            36774, 
            36998, 
            37196, 
            37426, 
            37749, 
            37968, 
            38160, 
            38666, 
            38795, 
            39080, 
            39233, 
            39546, 
            39865
        ], 
        "actual": [
            165, 
            317, 
            391, 
            561, 
            677, 
            708, 
            787, 
            951, 
            1075, 
            1135, 
            1198, 
            1252, 
            1317, 
            1448, 
            1798, 
            1890, 
            2357, 
            2453, 
            3547, 
            3703, 
            3935, 
            4109, 
            4334, 
            4558, 
            4943, 
            5137, 
            5311, 
            5481, 
            5561, 
            5631, 
            5739, 
            5899, 
            6125, 
            6275, 
            6794, 
            6909, 
            6979, 
            7124, 
            7212, 
            7342, 
            7551, 
            7752, 
            7881, 
            8003, 
            8084, 
            8179, 
            8272, 
            8346, 
            8418, 
            8484, 
            8751, 
            9148, 
            9398, 
            9614, 
            9764, 
            9884, 
            10833, 
            10921, 
            11055, 
            11299, 
            11588, 
            11764, 
            11895, 
            12127, 
            12248, 
            12362, 
            12487, 
            12685, 
            13065, 
            13228, 
            13532, 
            13843, 
            14066, 
            14289, 
            14857, 
            15309, 
            15526, 
            16035, 
            16368, 
            16665, 
            16774, 
            16885, 
            17060, 
            17179, 
            17280, 
            17382, 
            17485, 
            17735, 
            17917, 
            18072, 
            18225, 
            18649, 
            18757, 
            18854, 
            18994, 
            19302, 
            19467, 
            19708, 
            20038, 
            20824, 
            20861, 
            21123, 
            21492, 
            21705, 
            21797, 
            21978, 
            22338, 
            22508, 
            22626, 
            22724, 
            22932, 
            23124, 
            23265, 
            23443, 
            23712, 
            23885, 
            24050, 
            24186, 
            24377, 
            25103, 
            25180, 
            25224, 
            25357, 
            25661, 
            25796, 
            26072, 
            26214, 
            25304, 
            26374, 
            26514, 
            26696, 
            26792, 
            26895, 
            26983, 
            27110, 
            27210, 
            27283, 
            27423, 
            27524, 
            27714, 
            27845, 
            27989, 
            28422, 
            28589, 
            28808, 
            29113, 
            29390, 
            29649, 
            29919, 
            30129, 
            30400, 
            30550, 
            30675, 
            30814, 
            30924, 
            31080, 
            31215, 
            32092, 
            32179, 
            32230, 
            32257, 
            32550, 
            33059, 
            33343, 
            32408, 
            33562, 
            33735, 
            33834, 
            34034, 
            34124, 
            34396, 
            34683, 
            34906, 
            35038, 
            35261, 
            35487, 
            35765, 
            35995, 
            36064, 
            36174, 
            36376, 
            36483, 
            36774, 
            36998, 
            37196, 
            37426, 
            37749, 
            37968, 
            38160, 
            38666, 
            38795, 
            39080, 
            39233, 
            39546, 
            39865
        ], 
        "precision": 0.9301075268817204, 
        "candidate": "bor03"
    }, 
    {
        "recall": 0.18018018018018017, 
        "detected": [
            16, 
            2993, 
            3007, 
            3063, 
            3259, 
            3801, 
            4033, 
            4507, 
            5191, 
            5277, 
            5752, 
            5836, 
            6094, 
            6409, 
            6459, 
            6645, 
            6895, 
            7093, 
            7645, 
            7759, 
            7890, 
            8127, 
            8312, 
            8666, 
            9049, 
            9269, 
            9360, 
            9425, 
            9529, 
            9595, 
            9836, 
            10037, 
            10389, 
            10640, 
            11078, 
            11205, 
            11315, 
            11467, 
            11572, 
            11670, 
            12386, 
            12482, 
            12982, 
            13069, 
            13153, 
            13312, 
            13436, 
            14124, 
            14224, 
            14335, 
            14679, 
            15723, 
            16099, 
            16292, 
            17567, 
            17920, 
            18035, 
            18110, 
            18230, 
            18537, 
            18822, 
            18886, 
            19369, 
            19534, 
            19788, 
            20473, 
            20769, 
            20947, 
            21110, 
            22088, 
            22541, 
            22680, 
            22907, 
            23114, 
            23263, 
            23493, 
            23654, 
            23767, 
            23929, 
            24081, 
            24438, 
            24654, 
            25043, 
            26363, 
            27983, 
            28170, 
            28552, 
            28770, 
            29226, 
            29437, 
            29604, 
            29699, 
            29934, 
            30058, 
            30158, 
            30260, 
            30472, 
            30569, 
            30721, 
            39927, 
            39945
        ], 
        "actual": [
            3063, 
            3259, 
            4507, 
            4810, 
            5191, 
            5277, 
            5752, 
            5836, 
            6094, 
            6264, 
            6409, 
            6459, 
            6645, 
            6895, 
            7093, 
            7645, 
            7759, 
            7890, 
            7929, 
            7994, 
            8127, 
            8190, 
            8299, 
            8486, 
            8666, 
            9049, 
            9269, 
            9356, 
            9591, 
            10242, 
            10377, 
            10615, 
            11062, 
            11654, 
            12364, 
            13049, 
            13133, 
            13229, 
            14104, 
            14204, 
            14659, 
            16079, 
            16161, 
            16272, 
            17547, 
            18090, 
            18210, 
            18517, 
            18802, 
            18866, 
            19176, 
            19349, 
            19509, 
            19608, 
            20453, 
            20629, 
            20749, 
            20927, 
            21030, 
            21089, 
            21508, 
            22068, 
            22386, 
            22458, 
            22521, 
            22660, 
            22887, 
            23242, 
            23559, 
            23634, 
            23747, 
            24061, 
            24201, 
            24418, 
            24551, 
            24634, 
            27963, 
            28142, 
            28314, 
            28524, 
            28742, 
            29198, 
            29408, 
            29671, 
            29906, 
            30030, 
            30130, 
            30228, 
            30533, 
            30685, 
            30925, 
            31452, 
            32109, 
            32288, 
            32396, 
            34297, 
            34631, 
            34833, 
            34969, 
            35711, 
            35895, 
            36156, 
            36402, 
            36735, 
            36817, 
            36914, 
            37170, 
            37334, 
            37571, 
            37979, 
            38081
        ], 
        "precision": 0.19801980198019803, 
        "candidate": "bor17"
    }, 
    {
        "recall": 0.13740458015267176, 
        "detected": [
            2, 
            8, 
            198, 
            286, 
            294, 
            307, 
            316, 
            331, 
            369, 
            409, 
            495, 
            581, 
            642, 
            688, 
            778, 
            919, 
            3351, 
            3689, 
            4494, 
            4585, 
            4863, 
            6316, 
            6833, 
            6909, 
            7162, 
            7337, 
            7500, 
            7755, 
            8004, 
            8163, 
            8279, 
            8721, 
            9029, 
            9907, 
            12060, 
            12228, 
            13835, 
            14075, 
            14224, 
            14297, 
            14411, 
            14569, 
            14624, 
            14684, 
            15128, 
            15219, 
            15613, 
            16035, 
            17444, 
            17603, 
            17824, 
            17943, 
            18004, 
            18087, 
            18376, 
            19816, 
            19879, 
            20000, 
            20224, 
            20398, 
            20535, 
            20739, 
            20818, 
            21047, 
            21277, 
            21316, 
            21675, 
            21812, 
            21915, 
            21949, 
            23066, 
            23458, 
            23661, 
            23787, 
            23927, 
            24019, 
            24079, 
            24217, 
            24556, 
            24847, 
            25154, 
            25450, 
            25692, 
            26038, 
            26182, 
            26351, 
            26875, 
            27201, 
            27283, 
            27450, 
            27544, 
            27713, 
            27809, 
            28080, 
            28360, 
            28607, 
            28871, 
            29015, 
            29049, 
            29104, 
            29290, 
            29439, 
            29468, 
            29598, 
            29800, 
            30149, 
            30207, 
            30323, 
            30659, 
            30882, 
            30962, 
            31158, 
            31311, 
            31475, 
            31761, 
            31916, 
            32086, 
            32333, 
            32481, 
            32553, 
            32620, 
            32764, 
            32843, 
            32950, 
            33036, 
            33231, 
            33353, 
            33504, 
            33572, 
            33713, 
            34322, 
            34723, 
            35166, 
            35256, 
            35449, 
            35676, 
            35884, 
            36133, 
            36326, 
            36849, 
            37196, 
            37308, 
            37398, 
            37534, 
            37725, 
            38193, 
            38272, 
            38507, 
            39012, 
            39137, 
            39389, 
            39477
        ], 
        "actual": [
            286, 
            369, 
            409, 
            494, 
            579, 
            626, 
            662, 
            778, 
            919, 
            3351, 
            3689, 
            4494, 
            4585, 
            4862, 
            6316, 
            6832, 
            6908, 
            7033, 
            7105, 
            7162, 
            7337, 
            7500, 
            7755, 
            8004, 
            8163, 
            8279, 
            8706, 
            9021, 
            12057, 
            12224, 
            14069, 
            14133, 
            14161, 
            14219, 
            14292, 
            14407, 
            14565, 
            14620, 
            14680, 
            15124, 
            15215, 
            15609, 
            16035, 
            17439, 
            17526, 
            17552, 
            17599, 
            17820, 
            17939, 
            18000, 
            18083, 
            18368, 
            19871, 
            19992, 
            20083, 
            20216, 
            20390, 
            20527, 
            20624, 
            20731, 
            20810, 
            21039, 
            21131, 
            21269, 
            21308, 
            21471, 
            21941, 
            23058, 
            23450, 
            23653, 
            23778, 
            23919, 
            24011, 
            24072, 
            24548, 
            24838, 
            25146, 
            25442, 
            25684, 
            26030, 
            26174, 
            26867, 
            26938, 
            27193, 
            27275, 
            27441, 
            27800, 
            28852, 
            29783, 
            30132, 
            30739, 
            30865, 
            30945, 
            31141, 
            31290, 
            31454, 
            31740, 
            31895, 
            32065, 
            32312, 
            32458, 
            32510, 
            32598, 
            32741, 
            32820, 
            32928, 
            33332, 
            33483, 
            33550, 
            33691, 
            33735, 
            33797, 
            34087, 
            34301, 
            34388, 
            34702, 
            35145, 
            35235, 
            35428, 
            35655, 
            35863, 
            36096, 
            37175, 
            37373, 
            37509, 
            38164, 
            38243, 
            38478, 
            38983, 
            39106, 
            39448
        ], 
        "precision": 0.11842105263157894, 
        "candidate": "nad28"
    }, 
    {
        "recall": 0.813953488372093, 
        "detected": [
            10, 
            271, 
            354, 
            394, 
            479, 
            564, 
            648, 
            904, 
            1752, 
            1856, 
            1997, 
            2042, 
            2266, 
            2430, 
            2446, 
            2488, 
            2607, 
            2680, 
            2701, 
            2736, 
            2821, 
            2912, 
            2923, 
            2934, 
            2989, 
            3039, 
            3062, 
            3192, 
            3267, 
            3298, 
            3349, 
            3413, 
            3464, 
            3488, 
            3567, 
            3599, 
            3626, 
            3659, 
            3691, 
            3763, 
            3819, 
            3847, 
            3915, 
            3983, 
            4022, 
            4073, 
            4138, 
            4311, 
            4352, 
            4424, 
            4489, 
            4738, 
            4752, 
            4767, 
            4782, 
            4814, 
            4905, 
            4945, 
            5002, 
            5121, 
            5221, 
            5298, 
            5387, 
            5712, 
            5787, 
            6809, 
            6854, 
            7016, 
            7381, 
            7667, 
            7920, 
            7952, 
            7994, 
            8086, 
            8114, 
            8171, 
            8189, 
            8244, 
            8330, 
            8409, 
            9096, 
            9339, 
            9773, 
            9919, 
            11671, 
            11899, 
            12452, 
            12981, 
            13006, 
            13041, 
            14341, 
            14877, 
            15627, 
            15823, 
            16054, 
            16156, 
            16221, 
            16455, 
            16690, 
            17276, 
            17689, 
            17926, 
            18201, 
            18675, 
            19615, 
            20262, 
            20566, 
            20946, 
            21321, 
            21516, 
            21906, 
            22127, 
            22310, 
            23082, 
            24177, 
            24617, 
            25362, 
            25782, 
            26126, 
            27537, 
            27735, 
            27800, 
            28001, 
            28060, 
            28759, 
            28867, 
            28896, 
            28996, 
            29761, 
            29796, 
            29867, 
            30045, 
            30114, 
            30156, 
            30284, 
            30436, 
            30600, 
            30631, 
            30932, 
            31231, 
            31634, 
            32268, 
            32944, 
            33503, 
            33817, 
            34917, 
            36868, 
            37346, 
            37633, 
            37915, 
            38149, 
            38800, 
            38939, 
            39725
        ], 
        "actual": [
            271, 
            354, 
            394, 
            479, 
            564, 
            611, 
            648, 
            789, 
            904, 
            1856, 
            1997, 
            2042, 
            2201, 
            2266, 
            2281, 
            2299, 
            2312, 
            2327, 
            2430, 
            2446, 
            2462, 
            2473, 
            2488, 
            2524, 
            2582, 
            2607, 
            2651, 
            2680, 
            2701, 
            2736, 
            2784, 
            2821, 
            2912, 
            2923, 
            2934, 
            2989, 
            3039, 
            3062, 
            3192, 
            3267, 
            3298, 
            3349, 
            3413, 
            3464, 
            3478, 
            3488, 
            3567, 
            3599, 
            3626, 
            3659, 
            3691, 
            3726, 
            3763, 
            3819, 
            3830, 
            3847, 
            3915, 
            3983, 
            4022, 
            4073, 
            4138, 
            4280, 
            4311, 
            4352, 
            4424, 
            4489, 
            4557, 
            4726, 
            4738, 
            4752, 
            4767, 
            4782, 
            4814, 
            4905, 
            4945, 
            5002, 
            5121, 
            5167, 
            5221, 
            5298, 
            5387, 
            5712, 
            5787, 
            6809, 
            6837, 
            6854, 
            7016, 
            7381, 
            7520, 
            7677, 
            7920, 
            7952, 
            7994, 
            8086, 
            8099, 
            8114, 
            8171, 
            8189, 
            8202, 
            8244, 
            8330, 
            8409, 
            9096, 
            9339, 
            9773, 
            9920, 
            11671, 
            11899, 
            12981, 
            13006, 
            13041, 
            14341, 
            14877, 
            15627, 
            15722, 
            15823, 
            16054, 
            16156, 
            16455, 
            16690, 
            17276, 
            17689, 
            17926, 
            18201, 
            18675, 
            19210, 
            19615, 
            20262, 
            20566, 
            20946, 
            21321, 
            21516, 
            21906, 
            22127, 
            22310, 
            23082, 
            24177, 
            24617, 
            25362, 
            25782, 
            26126, 
            27537, 
            27735, 
            28060, 
            28386, 
            28759, 
            28867, 
            28996, 
            29761, 
            29867, 
            30045, 
            30156, 
            30284, 
            30436, 
            30631, 
            30932, 
            31231, 
            31634, 
            32268, 
            32944, 
            33503, 
            33817, 
            34917, 
            36868, 
            37345, 
            37633, 
            37916, 
            38149, 
            38800, 
            38939, 
            39725, 
            39998
        ], 
        "precision": 0.9090909090909091, 
        "candidate": "nad31"
    }, 
    {
        "recall": 0.8933333333333333, 
        "detected": [
            181, 
            257, 
            340, 
            380, 
            465, 
            550, 
            632, 
            893, 
            1787, 
            1859, 
            2083, 
            5182, 
            6004, 
            6173, 
            6322, 
            6484, 
            6567, 
            7225, 
            7466, 
            7543, 
            7834, 
            8298, 
            8766, 
            9146, 
            9313, 
            9500, 
            9692, 
            9957, 
            10048, 
            10184, 
            10221, 
            10312, 
            10385, 
            10585, 
            10869, 
            11137, 
            11355, 
            11603, 
            11865, 
            12153, 
            12311, 
            12351, 
            12438, 
            12470, 
            12666, 
            12811, 
            13080, 
            13400, 
            13624, 
            13752, 
            14200, 
            14394, 
            14665, 
            14781, 
            14980, 
            15242, 
            15429, 
            15645, 
            16566, 
            16651, 
            16987, 
            17142, 
            17204, 
            17339, 
            17891, 
            18195, 
            18312, 
            18816, 
            19256, 
            19539, 
            20268, 
            22205, 
            22467, 
            22562, 
            22648, 
            22739, 
            22855, 
            23194, 
            23825, 
            23892, 
            24024, 
            24088, 
            24337, 
            24452, 
            24692, 
            24821, 
            25497, 
            25631, 
            26743, 
            26869, 
            26996, 
            27574, 
            27695, 
            27774, 
            28442, 
            28681, 
            28748, 
            28830, 
            28907, 
            29787, 
            30071, 
            30741, 
            30785, 
            30994, 
            31080, 
            31244, 
            32095, 
            32317, 
            32465, 
            32610, 
            32724, 
            32950, 
            33122, 
            33429, 
            33817, 
            34015, 
            34160, 
            34293, 
            34659, 
            34784, 
            34978, 
            35042, 
            35139, 
            35567, 
            35692, 
            35991, 
            36296, 
            36542, 
            36683, 
            36807, 
            37150, 
            37381, 
            38011, 
            38173, 
            38331, 
            38476, 
            38738, 
            38796, 
            38924, 
            39106, 
            39188, 
            39216, 
            39244, 
            39300, 
            39328, 
            39356, 
            39604, 
            39803
        ], 
        "actual": [
            257, 
            340, 
            380, 
            465, 
            550, 
            597, 
            632, 
            893, 
            6004, 
            6173, 
            6322, 
            6484, 
            6567, 
            7225, 
            7466, 
            7543, 
            7834, 
            8298, 
            8766, 
            9146, 
            9313, 
            9500, 
            9692, 
            9957, 
            10048, 
            10184, 
            10312, 
            10385, 
            10585, 
            10869, 
            11137, 
            11355, 
            11603, 
            11865, 
            12153, 
            12311, 
            12351, 
            12438, 
            12470, 
            12666, 
            12811, 
            12893, 
            13080, 
            13308, 
            13400, 
            13624, 
            13752, 
            14200, 
            14394, 
            14604, 
            14665, 
            14781, 
            14980, 
            15242, 
            15429, 
            15645, 
            16566, 
            16651, 
            16987, 
            17142, 
            17204, 
            17339, 
            17487, 
            17685, 
            17891, 
            18195, 
            18312, 
            18816, 
            19256, 
            19373, 
            19454, 
            19539, 
            20268, 
            22205, 
            22467, 
            22562, 
            22648, 
            22739, 
            22855, 
            23019, 
            23194, 
            23825, 
            23892, 
            24024, 
            24088, 
            24337, 
            24452, 
            24692, 
            24821, 
            24994, 
            25114, 
            25193, 
            25497, 
            25631, 
            26743, 
            26869, 
            26995, 
            27079, 
            27695, 
            27774, 
            28442, 
            28681, 
            28748, 
            28830, 
            28907, 
            29787, 
            30071, 
            30741, 
            30785, 
            30994, 
            31080, 
            31448, 
            32095, 
            32317, 
            32465, 
            32610, 
            32724, 
            32950, 
            33122, 
            33429, 
            33817, 
            34015, 
            34160, 
            34293, 
            34659, 
            34784, 
            34978, 
            35042, 
            35139, 
            35567, 
            35692, 
            35991, 
            36296, 
            36542, 
            36636, 
            36683, 
            36807, 
            37150, 
            37381, 
            38011, 
            38173, 
            38331, 
            38476, 
            38738, 
            38796, 
            38924, 
            39106, 
            39356, 
            39604, 
            39803
        ], 
        "precision": 0.9054054054054054, 
        "candidate": "nad33"
    }, 
    {
        "recall": 0.891566265060241, 
        "detected": [
            18, 
            1807, 
            2011, 
            2598, 
            2952, 
            3017, 
            3069, 
            3152, 
            3252, 
            3321, 
            3392, 
            3744, 
            5108, 
            5151, 
            5204, 
            5288, 
            5331, 
            7877, 
            8017, 
            8218, 
            8305, 
            8434, 
            8633, 
            8731, 
            8832, 
            8959, 
            9115, 
            9284, 
            9484, 
            9594, 
            9815, 
            9959, 
            10088, 
            10402, 
            10492, 
            11015, 
            11100, 
            11608, 
            11722, 
            11802, 
            11898, 
            11988, 
            12151, 
            13231, 
            13335, 
            13483, 
            15481, 
            15682, 
            15849, 
            15975, 
            17608, 
            17754, 
            18157, 
            18252, 
            18322, 
            18466, 
            19671, 
            19752, 
            20133, 
            20821, 
            20974, 
            21038, 
            21208, 
            21374, 
            21466, 
            21633, 
            21743, 
            21881, 
            22286, 
            22362, 
            22452, 
            22571, 
            22645, 
            22761, 
            23069, 
            23190, 
            23288, 
            23534, 
            24691, 
            25589, 
            26093
        ], 
        "actual": [
            1807, 
            2011, 
            2451, 
            2598, 
            2817, 
            2866, 
            2952, 
            3017, 
            3069, 
            3152, 
            3252, 
            3321, 
            3392, 
            5108, 
            5151, 
            5204, 
            5288, 
            5331, 
            7509, 
            7772, 
            7877, 
            7943, 
            8017, 
            8108, 
            8218, 
            8305, 
            8434, 
            8633, 
            8731, 
            8832, 
            8959, 
            9115, 
            9284, 
            9484, 
            9594, 
            9815, 
            9959, 
            10088, 
            10402, 
            10492, 
            10585, 
            11015, 
            11100, 
            11608, 
            11722, 
            11802, 
            11898, 
            11988, 
            12151, 
            12977, 
            13231, 
            13335, 
            13483, 
            15682, 
            15849, 
            15975, 
            17608, 
            18157, 
            18252, 
            18322, 
            18466, 
            19671, 
            20133, 
            20821, 
            20974, 
            21038, 
            21208, 
            21374, 
            21466, 
            21633, 
            21743, 
            21881, 
            22286, 
            22362, 
            22452, 
            22571, 
            22645, 
            22761, 
            23069, 
            23190, 
            23288, 
            23534, 
            24691
        ], 
        "precision": 0.9135802469135802, 
        "candidate": "nad53"
    }, 
    {
        "recall": 0.9318181818181818, 
        "detected": [
            2, 
            1193, 
            1785, 
            1975, 
            2079, 
            2169, 
            2411, 
            2659, 
            2955, 
            3325, 
            3699, 
            3916, 
            4500, 
            4525, 
            4878, 
            4938, 
            5031, 
            6150, 
            6360, 
            6725, 
            7790, 
            7909, 
            8065, 
            8106, 
            8291, 
            8460, 
            8558, 
            8726, 
            8785, 
            8866, 
            8937, 
            9213, 
            9323, 
            9343, 
            9400, 
            9502, 
            9639, 
            9734, 
            9821, 
            10029, 
            10129, 
            10139, 
            10183, 
            10564, 
            10948, 
            11411, 
            11470, 
            11596, 
            12489
        ], 
        "actual": [
            1193, 
            1702, 
            1785, 
            1926, 
            1975, 
            2079, 
            2169, 
            2411, 
            2508, 
            2659, 
            2955, 
            3325, 
            3699, 
            3916, 
            4878, 
            4938, 
            5031, 
            6150, 
            6360, 
            6725, 
            7790, 
            7909, 
            8065, 
            8106, 
            8291, 
            8460, 
            8558, 
            8726, 
            8866, 
            8937, 
            9213, 
            9323, 
            9400, 
            9502, 
            9639, 
            9734, 
            9821, 
            10029, 
            10129, 
            10183, 
            10564, 
            10948, 
            11411, 
            11596
        ], 
        "precision": 0.8367346938775511, 
        "candidate": "nad57"
    }, 
    {
        "recall": 0.9017857142857143, 
        "detected": [
            126, 
            931, 
            1061, 
            1165, 
            1567, 
            1701, 
            2080, 
            2200, 
            2368, 
            3613, 
            3889, 
            4582, 
            4909, 
            5627, 
            5934, 
            6335, 
            6477, 
            6874, 
            7473, 
            7744, 
            8276, 
            8380, 
            8460, 
            10008, 
            10071, 
            10399, 
            10565, 
            10884, 
            11145, 
            11321, 
            11723, 
            12319, 
            12764, 
            12993, 
            13343, 
            13482, 
            13617, 
            13739, 
            14427, 
            14557, 
            15355, 
            15535, 
            15779, 
            15861, 
            16373, 
            16459, 
            16541, 
            16705, 
            16977, 
            17643, 
            17733, 
            17921, 
            18082, 
            18292, 
            18368, 
            19252, 
            19756, 
            20024, 
            20430, 
            20588, 
            20831, 
            21439, 
            21691, 
            22287, 
            22567, 
            22812, 
            22918, 
            23131, 
            23365, 
            23755, 
            23867, 
            24149, 
            24333, 
            25600, 
            25847, 
            25969, 
            26885, 
            26969, 
            27100, 
            28660, 
            29206, 
            29266, 
            29487, 
            29600, 
            29803, 
            29892, 
            30335, 
            30436, 
            30620, 
            30923, 
            33585, 
            34001, 
            34318, 
            35602, 
            35696, 
            36205, 
            36387, 
            36795, 
            38980, 
            39081, 
            39928
        ], 
        "actual": [
            126, 
            931, 
            1061, 
            1165, 
            1567, 
            1701, 
            2080, 
            2200, 
            2368, 
            3613, 
            3755, 
            3889, 
            4582, 
            4909, 
            5627, 
            5753, 
            5934, 
            6335, 
            6477, 
            6777, 
            6874, 
            7473, 
            7598, 
            7744, 
            8276, 
            8380, 
            8460, 
            10008, 
            10071, 
            10399, 
            10565, 
            10884, 
            11145, 
            11321, 
            11723, 
            12319, 
            12764, 
            12993, 
            13343, 
            13482, 
            13617, 
            13739, 
            14427, 
            14557, 
            15355, 
            15535, 
            15779, 
            15861, 
            16373, 
            16459, 
            16541, 
            16705, 
            16769, 
            16910, 
            16977, 
            17643, 
            17733, 
            17921, 
            18082, 
            18292, 
            18368, 
            19184, 
            19252, 
            19756, 
            19952, 
            20024, 
            20430, 
            20516, 
            20588, 
            20831, 
            21439, 
            21691, 
            22287, 
            22386, 
            22567, 
            22812, 
            22918, 
            23131, 
            23365, 
            23755, 
            23867, 
            24149, 
            24333, 
            25600, 
            25847, 
            25969, 
            26885, 
            26969, 
            27100, 
            28660, 
            29206, 
            29266, 
            29487, 
            29600, 
            29803, 
            29892, 
            30335, 
            30436, 
            30620, 
            30923, 
            31090, 
            33585, 
            34001, 
            34318, 
            35602, 
            35696, 
            36205, 
            36387, 
            36795, 
            38980, 
            39081, 
            39928
        ], 
        "precision": 1.0, 
        "candidate": "senses111"
    }
]